{
    "current_page": 1,
    "data": [
        {
            "nome": "Teste 7",
            "logo_url": null,
            "total_cestas_basicas": 100
        },
        {
            "nome": "Teste 2",
            "logo_url": null,
            "total_cestas_basicas": 40
        },
        {
            "nome": "Teste 4",
            "logo_url": null,
            "total_cestas_basicas": 20
        },
        {
            "nome": "Teste 3",
            "logo_url": null,
            "total_cestas_basicas": 15
        },
        {
            "nome": "Teste 5",
            "logo_url": null,
            "total_cestas_basicas": 10
        },
        {
            "nome": "Teste 6",
            "logo_url": null,
            "total_cestas_basicas": 9
        }
    ],
    "first_page_url": "http:\/\/back.localhost\/api\/v1\/doadores\/ranking?page=1",
    "from": 1,
    "last_page": 2,
    "last_page_url": "http:\/\/back.localhost\/api\/v1\/doadores\/ranking?page=2",
    "next_page_url": "http:\/\/back.localhost\/api\/v1\/doadores\/ranking?page=2",
    "path": "http:\/\/back.localhost\/api\/v1\/doadores\/ranking",
    "per_page": 6,
    "prev_page_url": null,
    "to": 6,
    "total": 7,
    "message": "Raqueamento dos doadores obtidos com sucesso!",
    "success": true,
    "url": "http:\/\/back.localhost\/api\/v1\/doadores\/ranking"
}
